#Rates were calculated using the expectation of the posterior rate distribution
#Prior distribution is Gamma with 16 discrete categories

#SEQ: the amino acid in the reference sequence in one letter code.
#SCORE: The conservation scores. lower value = higher conservation.
#QQ-INTERVAL: the confidence interval for the rate estimates. The default interval is 25-75 percentiles
#STD: the standard deviation of the posterior rate distribution.
#MSA DATA: The number of aligned sequences having an amino acid (non-gapped) from the overall number of sequences at each position.

#POS SEQ  SCORE    QQ-INTERVAL     STD      MSA DATA
#The alpha parameter 2.02229
    1     P   2.206   [ 1.661, 2.816]  0.5971   29/99
    2     Y   1.322   [ 1.001, 1.661]  0.4925   33/99
    3     S   1.228   [ 1.001, 1.437]  0.3215   46/99
    4     S   1.109   [0.8918, 1.266]  0.2561   66/99
    5     D    1.58   [ 1.437, 1.661]  0.3279   71/99
    6     T   1.185   [ 1.001, 1.437]  0.2664   76/99
    7     T   1.266   [ 1.124, 1.437]   0.258   80/99
    8     P   1.185   [ 1.001, 1.266]  0.2362   84/99
    9     C  0.1883   [ 0.132,0.2577] 0.09278   89/99
   10     C  0.1498   [ 0.132, 0.132] 0.05159   99/99
   11     F   1.369   [ 1.124, 1.661]  0.2796   99/99
   12     A   1.346   [ 1.124, 1.437]  0.2499   98/99
   13     Y   1.069   [0.8918, 1.266]  0.2333   99/99
   14     I   1.706   [ 1.437, 1.991]  0.2893   96/99
   15     A   1.408   [ 1.266, 1.661]  0.2361   99/99
   16     R   1.753   [ 1.661, 1.991]  0.2844   99/99
   17     P   1.593   [ 1.437, 1.661]  0.2932   93/99
   18     L  0.8963   [0.7926, 1.001]  0.1924   99/99
   19     P  0.5424   [0.4408,0.6116]  0.1511   99/99
   20     R   2.689   [ 2.816, 2.816]  0.3075   99/99
   21     A   1.772   [ 1.661, 1.991]  0.2866   99/99
   22     H   1.604   [ 1.437, 1.661]  0.2975   99/99
   23     I  0.8149   [0.6996,0.8918]  0.1749   99/99
   24     K   2.658   [ 2.816, 2.816]  0.3359   99/99
   25     E   1.193   [ 1.001, 1.266]  0.2213   99/99
   26     Y  0.5358   [0.4408,0.6116]  0.1714   99/99
   27     F   1.356   [ 1.124, 1.437]  0.2643   99/99
   28     Y   1.189   [ 1.001, 1.266]  0.2397   99/99
   29     T  0.5705   [0.4408,0.6116]  0.1336   99/99
   30     S  0.6977   [0.6116,0.7926]  0.1466   99/99
   31     G  0.8811   [0.7926, 1.001]  0.1717   99/99
   32     K   1.428   [ 1.266, 1.661]  0.2777   94/99
   33     C  0.1517   [ 0.132, 0.132] 0.05452   95/99
   34     S  0.9873   [0.8918, 1.124]  0.2032   95/99
   35     N   1.561   [ 1.437, 1.661]  0.2677   99/99
   36     P    1.05   [0.8918, 1.124]  0.2168   99/99
   37     A  0.2239   [ 0.132,0.2577] 0.09162   99/99
   38     V  0.3813   [0.3532,0.4408]  0.1028   99/99
   39     V   0.551   [0.4408,0.6116]  0.1275   99/99
   40     F  0.4247   [0.3532,0.5259]  0.1417   99/99
   41     V   1.945   [ 1.661, 1.991]  0.3859   99/99
   42     T  0.3466   [0.2577,0.4408] 0.09887   99/99
   43     R   1.246   [ 1.124, 1.437]  0.2385   99/99
   44     K    1.74   [ 1.661, 1.991]  0.2837   99/99
   45     N   1.887   [ 1.661, 1.991]  0.3566   98/99
   46     R   1.098   [ 1.001, 1.266]  0.2127   99/99
   47     Q   1.547   [ 1.437, 1.661]  0.2683   99/99
   48     V   0.923   [0.7926, 1.001]  0.1844   99/99
   49     C  0.1498   [ 0.132, 0.132] 0.05159   99/99
   50     A  0.4491   [0.3532,0.5259]  0.1147   99/99
   51     N  0.7553   [0.6116,0.8918]  0.1627   99/99
   52     P  0.3058   [0.2577,0.3532]  0.1208   99/99
   53     E   1.638   [ 1.437, 1.991]   0.274   99/99
   54     K   1.709   [ 1.437, 1.991]  0.2874   99/99
   55     K   2.722   [ 2.816, 2.816]   0.268   99/99
   56     W  0.7875   [0.6116,0.8918]  0.2488   99/99
   57     V  0.1423   [ 0.132, 0.132] 0.03676   99/99
   58     R  0.7465   [0.6116,0.8918]  0.1618   99/99
   59     E   2.465   [ 1.991, 2.816]  0.4399   99/99
   60     Y   1.605   [ 1.437, 1.661]  0.2932   99/99
   61     I    1.22   [ 1.124, 1.437]  0.2162   99/99
   62     N   2.224   [ 1.991, 2.816]  0.4464   99/99
   63     S   2.255   [ 1.991, 2.816]  0.4583   99/99
   64     L  0.3841   [0.2577,0.4408]  0.1376   95/99
   65     E  0.8731   [0.6996, 1.001]  0.2021   88/99
   66     M   1.544   [ 1.266, 1.661]  0.3307   72/99
   67     S  0.8749   [0.6996, 1.001]   0.277   38/99
#Average = 1.185
#Standard Deviation = 0.6623
